<?xml version="1.0" encoding="UTF-8"?>
<svg width="157pt" height="117pt" viewBox="0 0 157 117" version="1.1" xmlns="http://www.w3.org/2000/svg">
<g>
<path fill="#e83f6f" opacity="1.00" d=" M 42.72 17.67 C 48.18 6.57 60.91 -0.09 73.13 1.04 C 79.89 1.49 86.16 4.57 91.40 8.74 C 86.63 8.79 81.83 10.34 78.56 13.94 C 84.71 11.69 91.85 10.83 97.87 13.92 C 102.16 15.94 105.03 19.96 106.81 24.23 C 107.35 18.61 103.60 13.53 99.04 10.65 C 108.61 6.59 120.49 9.95 126.34 18.58 C 131.82 25.80 131.96 35.43 130.00 43.93 C 138.24 43.05 147.57 45.35 152.43 52.57 C 160.62 64.58 156.22 82.25 144.76 90.59 C 109.49 90.52 74.23 90.58 38.96 90.56 C 25.97 90.44 12.99 91.11 0.00 90.76 L 0.00 90.48 C 7.30 85.33 14.13 79.45 21.25 74.01 C 14.48 67.55 13.86 55.33 20.90 48.86 C 25.12 44.94 31.26 44.72 36.67 45.45 C 33.01 49.57 31.73 55.15 32.24 60.54 C 34.36 55.05 36.63 49.12 41.81 45.77 C 46.61 42.23 52.82 42.39 58.48 42.78 C 53.07 40.02 46.56 39.39 41.08 42.34 C 38.86 34.25 38.79 25.25 42.72 17.67 M 98.86 52.93 C 107.41 50.64 117.11 51.90 123.96 57.81 C 129.15 61.84 131.75 68.04 133.50 74.18 C 133.73 70.09 133.55 65.86 131.90 62.04 C 129.23 55.40 123.05 50.34 116.02 49.03 C 110.09 47.85 103.71 49.35 98.86 52.93 Z"/>
</g>
<g>
<path fill="#000" opacity="1.00" d=" M 4.85 106.98 C 4.62 102.04 9.00 97.35 14.03 97.69 C 21.65 97.77 29.27 97.52 36.88 97.83 C 36.84 99.16 36.81 100.49 36.78 101.82 C 29.21 101.82 21.64 101.78 14.06 101.82 C 11.21 101.58 8.69 104.24 8.86 107.05 C 8.94 109.65 11.28 112.01 13.93 111.85 C 19.61 111.91 25.28 111.90 30.95 111.82 C 28.62 109.41 26.16 107.13 24.04 104.54 C 25.95 104.66 28.00 104.18 29.83 104.92 C 32.28 107.19 34.51 109.69 36.83 112.10 C 36.83 113.38 36.83 114.67 36.84 115.96 C 29.23 116.03 21.63 116.00 14.02 116.00 C 9.11 116.29 4.77 111.82 4.85 106.98 Z"/>
<path fill="#000" opacity="1.00" d=" M 42.10 107.03 C 41.85 102.18 46.05 97.48 51.01 97.70 C 58.71 97.67 66.40 97.70 74.09 97.70 C 74.05 99.07 74.01 100.43 73.98 101.80 C 71.57 104.05 69.47 106.62 67.00 108.80 C 65.18 109.53 63.14 108.97 61.24 109.08 C 63.37 106.56 65.93 104.43 67.97 101.84 C 61.99 101.87 56.00 101.66 50.02 101.92 C 44.96 102.76 44.93 110.87 49.99 111.75 C 58.00 112.06 66.04 111.78 74.06 111.88 C 74.05 113.25 74.06 114.62 74.06 115.99 C 66.38 115.99 58.69 116.03 51.01 115.99 C 46.20 116.16 42.05 111.76 42.10 107.03 Z"/>
<path fill="#000" opacity="1.00" d=" M 79.44 107.04 C 79.21 102.32 83.19 97.69 88.01 97.71 C 95.80 97.65 103.59 97.71 111.38 97.69 C 112.57 103.04 106.86 105.57 104.06 109.17 C 102.26 109.13 100.46 109.10 98.66 109.06 C 100.70 106.53 103.29 104.50 105.22 101.87 C 99.48 101.80 93.73 101.73 87.99 101.87 C 84.65 101.93 82.45 106.01 83.91 108.92 C 84.74 110.89 86.89 112.06 88.99 111.87 C 96.45 111.90 103.90 111.86 111.36 111.88 C 111.36 113.25 111.36 114.63 111.37 116.00 C 103.58 115.97 95.78 116.06 87.98 115.97 C 83.32 115.96 79.42 111.62 79.44 107.04 Z"/>
<path fill="#000" opacity="1.00" d=" M 116.74 97.85 C 118.52 97.70 120.32 97.64 122.11 97.67 C 126.15 101.80 130.22 105.93 134.16 110.16 C 138.64 106.27 142.33 101.58 146.76 97.63 C 148.48 97.65 150.21 97.68 151.94 97.70 C 146.28 104.04 140.26 110.10 134.21 116.08 C 128.48 109.92 122.41 104.07 116.74 97.85 Z"/>
</g>
</svg>